project#final
…
## See spec(...) for full column specifications.

tab

## # A tibble: 395 x 33
##    school sex     age address famsize Pstatus  Medu  Fedu Mjob  Fjob 
##    <chr>  <chr> <dbl> <chr>   <chr>   <chr>   <dbl> <dbl> <chr> <chr>
##  1 GP     F        18 U       GT3     A           4     4 at_h~ teac~
##  2 GP     F        17 U       GT3     T           1     1 at_h~ other
##  3 GP     F        15 U       LE3     T           1     1 at_h~ other
##  4 GP     F        15 U       GT3     T           4     2 heal~ serv~
##  5 GP     F        16 U       GT3     T           3     3 other other
##  6 GP     M        16 U       LE3     T           4     3 serv~ other
##  7 GP     M        16 U       LE3     T           2     2 other other
##  8 GP     F        17 U       GT3     A           4     4 other teac~
##  9 GP     M        15 U       LE3     A           3     2 serv~ other
## 10 GP     M        15 U       GT3     T           3     4 other other
## # ... with 385 more rows, and 23 more variables: reason <chr>,
## #   guardian <chr>, traveltime <dbl>, studytime <dbl>, failures <dbl>,
## #   schoolsup <chr>, famsup <chr>, paid <chr>, activities <chr>,
## #   nursery <chr>, higher <chr>, internet <chr>, romantic <chr>,
## #   famrel <dbl>, freetime <dbl>, goout <dbl>, Dalc <dbl>, Walc <dbl>,
## #   health <dbl>, absences <dbl>, G1 <dbl>, G2 <dbl>, G3 <dbl>
…
table(tab$G3)

## 
##  0  4  5  6  7  8  9 10 11 12 13 14 15 16 17 18 19 20 
## 38  1  7 15  9 32 28 56 47 31 31 27 33 16  6 12  5  1

%>% - pipe operator, this could create a pipeline, so that functions that are piped can be perform within one step before output the result. User can use multiple pipe operator, the function will be run from top to bottom accordingly.

Here, we are adding (mutate) an extra column name G to the dataset, the column G is average calculated from the column G1,G2 and G3, the type of this column is double (dbl).

tab <- tab %>%
  mutate(G = (G1 + G2 + G3)/3)
tab

## # A tibble: 395 x 34
##    school sex     age address famsize Pstatus  Medu  Fedu Mjob  Fjob 
##    <chr>  <chr> <dbl> <chr>   <chr>   <chr>   <dbl> <dbl> <chr> <chr>
##  1 GP     F        18 U       GT3     A           4     4 at_h~ teac~
##  2 GP     F        17 U       GT3     T           1     1 at_h~ other
##  3 GP     F        15 U       LE3     T           1     1 at_h~ other
##  4 GP     F        15 U       GT3     T           4     2 heal~ serv~
##  5 GP     F        16 U       GT3     T           3     3 other other
##  6 GP     M        16 U       LE3     T           4     3 serv~ other
##  7 GP     M        16 U       LE3     T           2     2 other other
##  8 GP     F        17 U       GT3     A           4     4 other teac~
##  9 GP     M        15 U       LE3     A           3     2 serv~ other
## 10 GP     M        15 U       GT3     T           3     4 other other
## # ... with 385 more rows, and 24 more variables: reason <chr>,
## #   guardian <chr>, traveltime <dbl>, studytime <dbl>, failures <dbl>,
## #   schoolsup <chr>, famsup <chr>, paid <chr>, activities <chr>,
## #   nursery <chr>, higher <chr>, internet <chr>, romantic <chr>,
## #   famrel <dbl>, freetime <dbl>, goout <dbl>, Dalc <dbl>, Walc <dbl>,
## #   health <dbl>, absences <dbl>, G1 <dbl>, G2 <dbl>, G3 <dbl>, G <dbl>
…
sd_tab

## # A tibble: 395 x 35
##    school sex     age address famsize Pstatus  Medu  Fedu Mjob  Fjob 
##    <chr>  <chr> <dbl> <chr>   <chr>   <chr>   <dbl> <dbl> <chr> <chr>
##  1 GP     F        18 U       GT3     A           4     4 at_h~ teac~
##  2 GP     F        17 U       GT3     T           1     1 at_h~ other
##  3 GP     F        15 U       LE3     T           1     1 at_h~ other
##  4 GP     F        15 U       GT3     T           4     2 heal~ serv~
##  5 GP     F        16 U       GT3     T           3     3 other other
##  6 GP     M        16 U       LE3     T           4     3 serv~ other
##  7 GP     M        16 U       LE3     T           2     2 other other
##  8 GP     F        17 U       GT3     A           4     4 other teac~
##  9 GP     M        15 U       LE3     A           3     2 serv~ other
## 10 GP     M        15 U       GT3     T           3     4 other other
## # ... with 385 more rows, and 25 more variables: reason <chr>,
## #   guardian <chr>, traveltime <dbl>, studytime <dbl>, failures <dbl>,
## #   schoolsup <chr>, famsup <chr>, paid <chr>, activities <chr>,
## #   nursery <chr>, higher <chr>, internet <chr>, romantic <chr>,
## #   famrel <dbl>, freetime <dbl>, goout <dbl>, Dalc <dbl>, Walc <dbl>,
## #   health <dbl>, absences <dbl>, G1 <dbl>, G2 <dbl>, G3 <dbl>, G <dbl>,
## #   scaled_score <dbl>
…
We also want to see how different the result is for different guardian. We created dummy numerical attributes (one for mother, one for father). In this way, the option other will be considered as default value since both of its father and mother attributes are 0.

table(sd_tab$guardian)

## 
## father mother  other 
##     90    273     32

sd_tab <- sd_tab %>%
  mutate(guardian_m = ifelse(guardian == "mother", 1, 0),
         guardian_f = ifelse(guardian == "father", 1, 0))
sd_tab %>%
select(starts_with("guardian"))

## # A tibble: 395 x 3
##    guardian guardian_m guardian_f
##    <chr>         <dbl>      <dbl>
##  1 mother            1          0
##  2 father            0          1
##  3 mother            1          0
##  4 mother            1          0
##  5 father            0          1
##  6 mother            1          0
##  7 mother            1          0
##  8 mother            1          0
##  9 mother            1          0
## 10 mother            1          0
## # ... with 385 more rows
…
